{
  "PassthroughBehavior": "NEVER",
  "RequestParameters": {
    "integration.request.header.Content-Type": "'application/x-www-form-urlencoded'"
  },
  "RequestTemplates": {
    "application/json": "#set( $template = \"body=$input.body&connectionId=$context.connectionId\" )Action=SendMessage&MessageBody=$util.urlEncode($template)"
  }
}